%YAML 1.1
%TAG !u! tag:unity3d.com,2011:
--- !u!1 &100000
GameObject:
  m_ObjectHideFlags: 0
  m_PrefabParentObject: {fileID: 0}
  m_PrefabInternal: {fileID: 100100000}
  serializedVersion: 4
  m_Component:
  - 4: {fileID: 400000}
  - 114: {fileID: 11400000}
  m_Layer: 0
  m_Name: Fireworks
  m_TagString: ability
  m_Icon: {fileID: 0}
  m_NavMeshLayer: 0
  m_StaticEditorFlags: 0
  m_IsActive: 1
--- !u!4 &400000
Transform:
  m_ObjectHideFlags: 1
  m_PrefabParentObject: {fileID: 0}
  m_PrefabInternal: {fileID: 100100000}
  m_GameObject: {fileID: 100000}
  m_LocalRotation: {x: 0, y: 0, z: 0, w: 1}
  m_LocalPosition: {x: 0, y: 0, z: 0}
  m_LocalScale: {x: 1, y: 1, z: 1}
  m_Children: []
  m_Father: {fileID: 0}
  m_RootOrder: 0
--- !u!114 &11400000
MonoBehaviour:
  m_ObjectHideFlags: 1
  m_PrefabParentObject: {fileID: 0}
  m_PrefabInternal: {fileID: 100100000}
  m_GameObject: {fileID: 100000}
  m_Enabled: 1
  m_EditorHideFlags: 0
  m_Script: {fileID: 11500000, guid: 271973822d2c54d4ea48991449dd6b4a, type: 3}
  m_Name: 
  m_EditorClassIdentifier: 
  AnimationName: 
  AbilityPowerName: Fireworks
  abilityCooldownOverlay: {fileID: 0}
  IsActive: 0
  hitSound: {fileID: 0}
  clip: {fileID: 0}
  bossDamagePoint: {fileID: 0}
  fireworkObject: {fileID: 100000, guid: 01a8c211760ce4e438afda33bfd9f58c, type: 3}
  fireworkParticles: {fileID: 100000, guid: 871dc409dfa28414a98a74786a784099, type: 2}
  colors:
  - {r: .91911763, g: .13516438, b: .13516438, a: 0}
  - {r: .076750733, g: .046929054, b: .911764681, a: 0}
  - {r: .192646995, g: .963235319, b: 0, a: 0}
--- !u!1001 &100100000
Prefab:
  m_ObjectHideFlags: 1
  serializedVersion: 2
  m_Modification:
    m_TransformParent: {fileID: 0}
    m_Modifications: []
    m_RemovedComponents: []
  m_ParentPrefab: {fileID: 0}
  m_RootGameObject: {fileID: 100000}
  m_IsPrefabParent: 1
  m_IsExploded: 1
