%YAML 1.1
%TAG !u! tag:unity3d.com,2011:
--- !u!114 &11400000
MonoBehaviour:
  m_ObjectHideFlags: 0
  m_PrefabParentObject: {fileID: 0}
  m_PrefabInternal: {fileID: 0}
  m_GameObject: {fileID: 0}
  m_Enabled: 1
  m_EditorHideFlags: 0
  m_Script: {fileID: 11500000, guid: 9f3758f8f58fdef43803eb9be1df0608, type: 3}
  m_Name: PhotonServerSettings
  m_EditorClassIdentifier: 
  HostType: 1
  ServerAddress: app-eu.exitgamescloud.com
  ServerPort: 5055
  AppID: edcce345-3f7c-425d-8cd1-7cfd5a89255f
  PingCloudServersOnAwake: 0
  RpcList:
  - Marco
  - Polo
  - TaggedPlayer
  - SetPosition
  - Chat
  - InstantiateRpc
  - OnAwakeRPC
  - DestroyRpc
  - DisableBoss
  - DisableRaid
  - MoveTo
  - MoveToRange
  - Taunt
  - LoseAggro
  - AddDamage
  - Death
  - OnlineMove
  - Damage
  - RPCAnimTrigger
  - NetworkedAOEControl
  - RemoteAbility
  - AnimState
  - HandleTaunt
  - HandleAggroLoss
  - HandleNextTarget
  - SetTarget
  - SetMoving
  - SetAttacking
  - ActivateRaiderAbility
  - SetBoss
  - SetRaider
  - DeathAndDestroy
  - Pick
  - PlayerReady
  - StartPhotonGame
  DisableAutoOpenWizard: 0
