%YAML 1.1
%TAG !u! tag:unity3d.com,2011:
--- !u!1 &100000
GameObject:
  m_ObjectHideFlags: 0
  m_PrefabParentObject: {fileID: 0}
  m_PrefabInternal: {fileID: 100100000}
  serializedVersion: 4
  m_Component:
  - 4: {fileID: 400000}
  - 114: {fileID: 11400000}
  m_Layer: 0
  m_Name: AmazOOSTROVItalic
  m_TagString: Untagged
  m_Icon: {fileID: 0}
  m_NavMeshLayer: 0
  m_StaticEditorFlags: 0
  m_IsActive: 1
--- !u!4 &400000
Transform:
  m_ObjectHideFlags: 1
  m_PrefabParentObject: {fileID: 0}
  m_PrefabInternal: {fileID: 100100000}
  m_GameObject: {fileID: 100000}
  m_LocalRotation: {x: 0, y: 0, z: 0, w: 1}
  m_LocalPosition: {x: 0, y: 0, z: 0}
  m_LocalScale: {x: 1, y: 1, z: 1}
  m_Children: []
  m_Father: {fileID: 0}
  m_RootOrder: 0
--- !u!114 &11400000
MonoBehaviour:
  m_ObjectHideFlags: 1
  m_PrefabParentObject: {fileID: 0}
  m_PrefabInternal: {fileID: 100100000}
  m_GameObject: {fileID: 100000}
  m_Enabled: 1
  m_EditorHideFlags: 0
  m_Script: {fileID: 11500000, guid: 0b4eb3a400afab046abb8471a9d746d6, type: 3}
  m_Name: 
  m_EditorClassIdentifier: 
  mMat: {fileID: 0}
  mUVRect:
    serializedVersion: 2
    x: 0
    y: 0
    width: .25
    height: .25
  mFont:
    mSize: 20
    mBase: 15
    mWidth: 256
    mHeight: 256
    mSpriteName: SciFi Atlas
    mSaved:
    - index: 32
      x: 192
      y: 235
      width: 7
      height: 7
      offsetX: -2
      offsetY: 13
      advance: 6
      channel: 15
      kerning: 
    - index: 33
      x: 156
      y: 186
      width: 9
      height: 17
      offsetX: -1
      offsetY: 2
      advance: 5
      channel: 15
      kerning: 
    - index: 34
      x: 0
      y: 240
      width: 13
      height: 11
      offsetX: -1
      offsetY: 2
      advance: 9
      channel: 15
      kerning: 41000000ffffffff4c000000fdffffffc0000000ffffffffc1000000ffffffffc2000000ffffffffc3000000ffffffffc4000000ffffffffc5000000ffffffff
    - index: 35
      x: 176
      y: 147
      width: 17
      height: 17
      offsetX: -1
      offsetY: 2
      advance: 13
      channel: 15
      kerning: 
    - index: 36
      x: 56
      y: 24
      width: 16
      height: 21
      offsetX: -1
      offsetY: 0
      advance: 12
      channel: 15
      kerning: 
    - index: 37
      x: 47
      y: 130
      width: 20
      height: 17
      offsetX: -1
      offsetY: 2
      advance: 16
      channel: 15
      kerning: 
    - index: 38
      x: 195
      y: 146
      width: 17
      height: 17
      offsetX: -1
      offsetY: 2
      advance: 13
      channel: 15
      kerning: 
    - index: 39
      x: 29
      y: 240
      width: 9
      height: 11
      offsetX: -1
      offsetY: 2
      advance: 6
      channel: 15
      kerning: 41000000ffffffff4c000000fdffffffc0000000ffffffffc1000000ffffffffc2000000ffffffffc3000000ffffffffc4000000ffffffffc5000000ffffffff
    - index: 40
      x: 30
      y: 0
      width: 12
      height: 22
      offsetX: -1
      offsetY: 1
      advance: 7
      channel: 15
      kerning: 
    - index: 41
      x: 44
      y: 0
      width: 12
      height: 22
      offsetX: -2
      offsetY: 1
      advance: 7
      channel: 15
      kerning: 
    - index: 42
      x: 153
      y: 222
      width: 14
      height: 12
      offsetX: -1
      offsetY: 2
      advance: 10
      channel: 15
      kerning: 
    - index: 43
      x: 19
      y: 207
      width: 17
      height: 15
      offsetX: -1
      offsetY: 4
      advance: 12
      channel: 15
      kerning: 
    - index: 44
      x: 53
      y: 240
      width: 9
      height: 10
      offsetX: -1
      offsetY: 11
      advance: 6
      channel: 15
      kerning: 46000000feffffff50000000feffffff54000000feffffff56000000ffffffff57000000ffffffff59000000feffffffdd000000feffffff
    - index: 45
      x: 123
      y: 238
      width: 11
      height: 8
      offsetX: -1
      offsetY: 7
      advance: 7
      channel: 15
      kerning: 
    - index: 46
      x: 147
      y: 238
      width: 9
      height: 8
      offsetX: -1
      offsetY: 11
      advance: 6
      channel: 15
      kerning: 46000000feffffff50000000feffffff54000000feffffff56000000ffffffff57000000ffffffff59000000feffffffdd000000feffffff
    - index: 47
      x: 83
      y: 69
      width: 14
      height: 19
      offsetX: -2
      offsetY: 1
      advance: 8
      channel: 15
      kerning: 
    - index: 48
      x: 214
      y: 146
      width: 17
      height: 17
      offsetX: -1
      offsetY: 2
      advance: 13
      channel: 15
      kerning: 
    - index: 49
      x: 242
      y: 107
      width: 11
      height: 17
      offsetX: -2
      offsetY: 2
      advance: 7
      channel: 15
      kerning: 
    - index: 50
      x: 149
      y: 167
      width: 16
      height: 17
      offsetX: -1
      offsetY: 2
      advance: 12
      channel: 15
      kerning: 
    - index: 51
      x: 36
      y: 188
      width: 16
      height: 17
      offsetX: -1
      offsetY: 2
      advance: 12
      channel: 15
      kerning: 
    - index: 52
      x: 233
      y: 145
      width: 17
      height: 17
      offsetX: -2
      offsetY: 2
      advance: 11
      channel: 15
      kerning: 
    - index: 53
      x: 113
      y: 168
      width: 16
      height: 17
      offsetX: -1
      offsetY: 2
      advance: 11
      channel: 15
      kerning: 
    - index: 54
      x: 167
      y: 166
      width: 16
      height: 17
      offsetX: -1
      offsetY: 2
      advance: 12
      channel: 15
      kerning: 
    - index: 55
      x: 157
      y: 147
      width: 17
      height: 17
      offsetX: -2
      offsetY: 2
      advance: 10
      channel: 15
      kerning: 
    - index: 56
      x: 0
      y: 188
      width: 16
      height: 17
      offsetX: -1
      offsetY: 2
      advance: 12
      channel: 15
      kerning: 
    - index: 57
      x: 18
      y: 188
      width: 16
      height: 17
      offsetX: -1
      offsetY: 2
      advance: 12
      channel: 15
      kerning: 
    - index: 58
      x: 244
      y: 183
      width: 9
      height: 14
      offsetX: -1
      offsetY: 5
      advance: 6
      channel: 15
      kerning: 
    - index: 59
      x: 189
      y: 185
      width: 9
      height: 16
      offsetX: -1
      offsetY: 5
      advance: 6
      channel: 15
      kerning: 
    - index: 60
      x: 38
      y: 207
      width: 17
      height: 15
      offsetX: -2
      offsetY: 4
      advance: 12
      channel: 15
      kerning: 
    - index: 61
      x: 234
      y: 218
      width: 16
      height: 11
      offsetX: -1
      offsetY: 6
      advance: 12
      channel: 15
      kerning: 
    - index: 62
      x: 75
      y: 206
      width: 16
      height: 15
      offsetX: -1
      offsetY: 4
      advance: 12
      channel: 15
      kerning: 
    - index: 63
      x: 140
      y: 186
      width: 14
      height: 17
      offsetX: -1
      offsetY: 2
      advance: 10
      channel: 15
      kerning: 
    - index: 64
      x: 98
      y: 0
      width: 22
      height: 21
      offsetX: -1
      offsetY: 2
      advance: 18
      channel: 15
      kerning: 
    - index: 65
      x: 215
      y: 126
      width: 18
      height: 17
      offsetX: -2
      offsetY: 2
      advance: 12
      channel: 15
      kerning: 46000000ffffffff50000000ffffffff54000000ffffffff56000000ffffffff57000000ffffffff59000000ffffffffdd000000ffffffff
    - index: 66
      x: 221
      y: 165
      width: 16
      height: 17
      offsetX: -1
      offsetY: 2
      advance: 12
      channel: 15
      kerning: 
    - index: 67
      x: 0
      y: 169
      width: 17
      height: 17
      offsetX: -1
      offsetY: 2
      advance: 13
      channel: 15
      kerning: 
    - index: 68
      x: 19
      y: 169
      width: 17
      height: 17
      offsetX: -1
      offsetY: 2
      advance: 13
      channel: 15
      kerning: 
    - index: 69
      x: 203
      y: 165
      width: 16
      height: 17
      offsetX: -1
      offsetY: 2
      advance: 12
      channel: 15
      kerning: 
    - index: 70
      x: 185
      y: 166
      width: 16
      height: 17
      offsetX: -1
      offsetY: 2
      advance: 11
      channel: 15
      kerning: 
    - index: 71
      x: 38
      y: 169
      width: 17
      height: 17
      offsetX: -1
      offsetY: 2
      advance: 13
      channel: 15
      kerning: 
    - index: 72
      x: 195
      y: 127
      width: 18
      height: 17
      offsetX: -1
      offsetY: 2
      advance: 14
      channel: 15
      kerning: 
    - index: 73
      x: 167
      y: 185
      width: 9
      height: 17
      offsetX: -1
      offsetY: 2
      advance: 5
      channel: 15
      kerning: 
    - index: 74
      x: 90
      y: 187
      width: 15
      height: 17
      offsetX: -1
      offsetY: 2
      advance: 11
      channel: 15
      kerning: 46000000fbffffff50000000feffffff52000000ffffffff54000000fdffffff56000000ffffffff57000000ffffffff59000000feffffffdd000000feffffff
    - index: 75
      x: 57
      y: 168
      width: 17
      height: 17
      offsetX: -1
      offsetY: 2
      advance: 12
      channel: 15
      kerning: 
    - index: 76
      x: 239
      y: 164
      width: 15
      height: 17
      offsetX: -1
      offsetY: 2
      advance: 10
      channel: 15
      kerning: 
    - index: 77
      x: 69
      y: 130
      width: 20
      height: 17
      offsetX: -1
      offsetY: 2
      advance: 16
      channel: 15
      kerning: 
    - index: 78
      x: 235
      y: 126
      width: 18
      height: 17
      offsetX: -1
      offsetY: 2
      advance: 14
      channel: 15
      kerning: 
    - index: 79
      x: 76
      y: 168
      width: 17
      height: 17
      offsetX: -1
      offsetY: 2
      advance: 13
      channel: 15
      kerning: 
    - index: 80
      x: 131
      y: 167
      width: 16
      height: 17
      offsetX: -1
      offsetY: 2
      advance: 12
      channel: 15
      kerning: 
    - index: 81
      x: 14
      y: 69
      width: 17
      height: 19
      offsetX: -1
      offsetY: 2
      advance: 13
      channel: 15
      kerning: 
    - index: 82
      x: 100
      y: 149
      width: 17
      height: 17
      offsetX: -1
      offsetY: 2
      advance: 13
      channel: 15
      kerning: 
    - index: 83
      x: 95
      y: 168
      width: 16
      height: 17
      offsetX: -1
      offsetY: 2
      advance: 12
      channel: 15
      kerning: 
    - index: 84
      x: 119
      y: 148
      width: 17
      height: 17
      offsetX: -2
      offsetY: 2
      advance: 11
      channel: 15
      kerning: 41000000ffffffff4c000000feffffffc0000000ffffffffc1000000ffffffffc2000000ffffffffc3000000ffffffffc4000000ffffffffc5000000ffffffff
    - index: 85
      x: 138
      y: 148
      width: 17
      height: 17
      offsetX: -1
      offsetY: 2
      advance: 13
      channel: 15
      kerning: 
    - index: 86
      x: 0
      y: 150
      width: 18
      height: 17
      offsetX: -2
      offsetY: 2
      advance: 12
      channel: 15
      kerning: 41000000ffffffff4c000000feffffffc0000000ffffffffc1000000ffffffffc2000000ffffffffc3000000ffffffffc4000000ffffffffc5000000ffffffff
    - index: 87
      x: 0
      y: 131
      width: 23
      height: 17
      offsetX: -2
      offsetY: 2
      advance: 17
      channel: 15
      kerning: 41000000ffffffff4c000000ffffffffc0000000ffffffffc1000000ffffffffc2000000ffffffffc3000000ffffffffc4000000ffffffffc5000000ffffffff
    - index: 88
      x: 60
      y: 149
      width: 18
      height: 17
      offsetX: -2
      offsetY: 2
      advance: 12
      channel: 15
      kerning: 
    - index: 89
      x: 154
      y: 128
      width: 19
      height: 17
      offsetX: -3
      offsetY: 2
      advance: 12
      channel: 15
      kerning: 41000000ffffffff4c000000feffffffc0000000ffffffffc1000000ffffffffc2000000ffffffffc3000000ffffffffc4000000ffffffffc5000000ffffffff
    - index: 90
      x: 72
      y: 187
      width: 16
      height: 17
      offsetX: -1
      offsetY: 2
      advance: 12
      channel: 15
      kerning: 
    - index: 91
      x: 58
      y: 0
      width: 12
      height: 22
      offsetX: -1
      offsetY: 1
      advance: 8
      channel: 15
      kerning: 
    - index: 92
      x: 67
      y: 69
      width: 14
      height: 19
      offsetX: -2
      offsetY: 1
      advance: 8
      channel: 15
      kerning: 
    - index: 93
      x: 72
      y: 0
      width: 12
      height: 22
      offsetX: -2
      offsetY: 1
      advance: 7
      channel: 15
      kerning: 
    - index: 94
      x: 216
      y: 219
      width: 16
      height: 11
      offsetX: -2
      offsetY: 2
      advance: 10
      channel: 15
      kerning: 
    - index: 95
      x: 158
      y: 236
      width: 17
      height: 7
      offsetX: -2
      offsetY: 16
      advance: 11
      channel: 15
      kerning: 
    - index: 96
      x: 95
      y: 239
      width: 12
      height: 8
      offsetX: -1
      offsetY: 1
      advance: 7
      channel: 15
      kerning: 
    - index: 97
      x: 162
      y: 205
      width: 15
      height: 15
      offsetX: -1
      offsetY: 4
      advance: 11
      channel: 15
      kerning: 54000000ffffffff56000000ffffffff59000000ffffffffdd000000ffffffff
    - index: 98
      x: 189
      y: 67
      width: 15
      height: 18
      offsetX: -1
      offsetY: 1
      advance: 11
      channel: 15
      kerning: 
    - index: 99
      x: 145
      y: 205
      width: 15
      height: 15
      offsetX: -1
      offsetY: 4
      advance: 11
      channel: 15
      kerning: 56000000ffffffff
    - index: 100
      x: 206
      y: 67
      width: 15
      height: 18
      offsetX: -1
      offsetY: 1
      advance: 11
      channel: 15
      kerning: 59000000ffffffffdd000000ffffffff
    - index: 101
      x: 179
      y: 204
      width: 15
      height: 15
      offsetX: -1
      offsetY: 4
      advance: 11
      channel: 15
      kerning: 54000000ffffffff56000000ffffffff59000000ffffffffdd000000ffffffff
    - index: 102
      x: 102
      y: 109
      width: 14
      height: 18
      offsetX: -1
      offsetY: 1
      advance: 9
      channel: 15
      kerning: 
    - index: 103
      x: 50
      y: 69
      width: 15
      height: 19
      offsetX: -1
      offsetY: 4
      advance: 11
      channel: 15
      kerning: 
    - index: 104
      x: 223
      y: 67
      width: 15
      height: 18
      offsetX: -1
      offsetY: 1
      advance: 11
      channel: 15
      kerning: 
    - index: 105
      x: 192
      y: 107
      width: 9
      height: 18
      offsetX: -1
      offsetY: 1
      advance: 5
      channel: 15
      kerning: 
    - index: 106
      x: 86
      y: 0
      width: 10
      height: 22
      offsetX: -2
      offsetY: 1
      advance: 5
      channel: 15
      kerning: 
    - index: 107
      x: 135
      y: 68
      width: 16
      height: 18
      offsetX: -1
      offsetY: 1
      advance: 10
      channel: 15
      kerning: 
    - index: 108
      x: 203
      y: 107
      width: 9
      height: 18
      offsetX: -1
      offsetY: 1
      advance: 5
      channel: 15
      kerning: 
    - index: 109
      x: 223
      y: 184
      width: 19
      height: 15
      offsetX: -1
      offsetY: 4
      advance: 15
      channel: 15
      kerning: 
    - index: 110
      x: 111
      y: 206
      width: 15
      height: 15
      offsetX: -1
      offsetY: 4
      advance: 11
      channel: 15
      kerning: 
    - index: 111
      x: 128
      y: 206
      width: 15
      height: 15
      offsetX: -1
      offsetY: 4
      advance: 11
      channel: 15
      kerning: 54000000ffffffff56000000ffffffff59000000ffffffffdd000000ffffffff
    - index: 112
      x: 51
      y: 90
      width: 15
      height: 18
      offsetX: -1
      offsetY: 4
      advance: 11
      channel: 15
      kerning: 59000000ffffffffdd000000ffffffff
    - index: 113
      x: 68
      y: 90
      width: 15
      height: 18
      offsetX: -1
      offsetY: 4
      advance: 11
      channel: 15
      kerning: 
    - index: 114
      x: 228
      y: 201
      width: 13
      height: 15
      offsetX: -1
      offsetY: 4
      advance: 9
      channel: 15
      kerning: 54000000ffffffff56000000ffffffff59000000ffffffffdd000000ffffffff
    - index: 115
      x: 196
      y: 203
      width: 14
      height: 15
      offsetX: -1
      offsetY: 4
      advance: 10
      channel: 15
      kerning: 54000000ffffffff56000000ffffffff59000000ffffffffdd000000ffffffff
    - index: 116
      x: 124
      y: 187
      width: 14
      height: 17
      offsetX: -1
      offsetY: 2
      advance: 9
      channel: 15
      kerning: 
    - index: 117
      x: 58
      y: 224
      width: 15
      height: 14
      offsetX: -1
      offsetY: 5
      advance: 11
      channel: 15
      kerning: 54000000ffffffff56000000ffffffff59000000ffffffffdd000000ffffffff
    - index: 118
      x: 22
      y: 224
      width: 16
      height: 14
      offsetX: -2
      offsetY: 5
      advance: 10
      channel: 15
      kerning: 
    - index: 119
      x: 0
      y: 224
      width: 20
      height: 14
      offsetX: -2
      offsetY: 5
      advance: 14
      channel: 15
      kerning: 54000000ffffffff
    - index: 120
      x: 40
      y: 224
      width: 16
      height: 14
      offsetX: -2
      offsetY: 5
      advance: 10
      channel: 15
      kerning: 
    - index: 121
      x: 54
      y: 188
      width: 16
      height: 17
      offsetX: -2
      offsetY: 5
      advance: 10
      channel: 15
      kerning: 54000000ffffffff
    - index: 122
      x: 212
      y: 202
      width: 14
      height: 15
      offsetX: -1
      offsetY: 4
      advance: 10
      channel: 15
      kerning: 59000000ffffffffdd000000ffffffff
    - index: 123
      x: 0
      y: 0
      width: 13
      height: 22
      offsetX: -2
      offsetY: 1
      advance: 7
      channel: 15
      kerning: 
    - index: 124
      x: 155
      y: 23
      width: 9
      height: 21
      offsetX: -1
      offsetY: 1
      advance: 5
      channel: 15
      kerning: 
    - index: 125
      x: 15
      y: 0
      width: 13
      height: 22
      offsetX: -1
      offsetY: 1
      advance: 7
      channel: 15
      kerning: 
    - index: 126
      x: 64
      y: 240
      width: 15
      height: 8
      offsetX: -1
      offsetY: 7
      advance: 10
      channel: 15
      kerning: 
    - index: 160
      x: 247
      y: 23
      width: 7
      height: 7
      offsetX: -2
      offsetY: 13
      advance: 6
      channel: 15
      kerning: 
    - index: 161
      x: 178
      y: 185
      width: 9
      height: 17
      offsetX: -1
      offsetY: 5
      advance: 5
      channel: 15
      kerning: 
    - index: 162
      x: 85
      y: 110
      width: 15
      height: 18
      offsetX: -1
      offsetY: 3
      advance: 11
      channel: 15
      kerning: 
    - index: 163
      x: 175
      y: 128
      width: 18
      height: 17
      offsetX: -2
      offsetY: 2
      advance: 13
      channel: 15
      kerning: 
    - index: 164
      x: 75
      y: 223
      width: 15
      height: 14
      offsetX: -1
      offsetY: 3
      advance: 11
      channel: 15
      kerning: 
    - index: 165
      x: 133
      y: 129
      width: 19
      height: 17
      offsetX: -3
      offsetY: 2
      advance: 12
      channel: 15
      kerning: 
    - index: 166
      x: 144
      y: 23
      width: 9
      height: 21
      offsetX: -1
      offsetY: 1
      advance: 5
      channel: 15
      kerning: 
    - index: 167
      x: 110
      y: 23
      width: 16
      height: 21
      offsetX: -1
      offsetY: 2
      advance: 12
      channel: 15
      kerning: 
    - index: 168
      x: 81
      y: 239
      width: 12
      height: 8
      offsetX: -1
      offsetY: 1
      advance: 8
      channel: 15
      kerning: 
    - index: 169
      x: 20
      y: 150
      width: 18
      height: 17
      offsetX: -1
      offsetY: 2
      advance: 14
      channel: 15
      kerning: 
    - index: 170
      x: 92
      y: 223
      width: 12
      height: 14
      offsetX: -1
      offsetY: 2
      advance: 8
      channel: 15
      kerning: 
    - index: 171
      x: 120
      y: 223
      width: 15
      height: 13
      offsetX: -2
      offsetY: 6
      advance: 10
      channel: 15
      kerning: 
    - index: 172
      x: 197
      y: 220
      width: 17
      height: 11
      offsetX: -2
      offsetY: 6
      advance: 12
      channel: 15
      kerning: 
    - index: 174
      x: 40
      y: 149
      width: 18
      height: 17
      offsetX: -1
      offsetY: 2
      advance: 14
      channel: 15
      kerning: 
    - index: 175
      x: 177
      y: 236
      width: 13
      height: 7
      offsetX: -1
      offsetY: 2
      advance: 9
      channel: 15
      kerning: 
    - index: 176
      x: 15
      y: 240
      width: 12
      height: 11
      offsetX: -1
      offsetY: 2
      advance: 8
      channel: 15
      kerning: 
    - index: 177
      x: 0
      y: 207
      width: 17
      height: 15
      offsetX: -1
      offsetY: 4
      advance: 12
      channel: 15
      kerning: 
    - index: 178
      x: 169
      y: 222
      width: 12
      height: 12
      offsetX: -1
      offsetY: 2
      advance: 8
      channel: 15
      kerning: 
    - index: 179
      x: 183
      y: 221
      width: 12
      height: 12
      offsetX: -1
      offsetY: 2
      advance: 8
      channel: 15
      kerning: 
    - index: 180
      x: 109
      y: 239
      width: 12
      height: 8
      offsetX: -1
      offsetY: 1
      advance: 7
      channel: 15
      kerning: 
    - index: 181
      x: 107
      y: 187
      width: 15
      height: 17
      offsetX: -1
      offsetY: 5
      advance: 11
      channel: 15
      kerning: 
    - index: 182
      x: 188
      y: 45
      width: 16
      height: 20
      offsetX: -1
      offsetY: 2
      advance: 12
      channel: 15
      kerning: 
    - index: 183
      x: 136
      y: 238
      width: 9
      height: 8
      offsetX: -1
      offsetY: 6
      advance: 6
      channel: 15
      kerning: 
    - index: 184
      x: 40
      y: 240
      width: 11
      height: 10
      offsetX: -1
      offsetY: 13
      advance: 9
      channel: 15
      kerning: 
    - index: 185
      x: 243
      y: 201
      width: 9
      height: 12
      offsetX: -1
      offsetY: 2
      advance: 5
      channel: 15
      kerning: 
    - index: 186
      x: 106
      y: 223
      width: 12
      height: 14
      offsetX: -1
      offsetY: 2
      advance: 8
      channel: 15
      kerning: 
    - index: 187
      x: 137
      y: 223
      width: 14
      height: 13
      offsetX: -1
      offsetY: 6
      advance: 10
      channel: 15
      kerning: 
    - index: 188
      x: 80
      y: 149
      width: 18
      height: 17
      offsetX: -1
      offsetY: 2
      advance: 14
      channel: 15
      kerning: 
    - index: 189
      x: 112
      y: 129
      width: 19
      height: 17
      offsetX: -1
      offsetY: 2
      advance: 15
      channel: 15
      kerning: 
    - index: 190
      x: 25
      y: 130
      width: 20
      height: 17
      offsetX: -1
      offsetY: 2
      advance: 16
      channel: 15
      kerning: 
    - index: 191
      x: 118
      y: 109
      width: 14
      height: 18
      offsetX: -1
      offsetY: 5
      advance: 10
      channel: 15
      kerning: 
    - index: 192
      x: 0
      y: 47
      width: 18
      height: 20
      offsetX: -2
      offsetY: -1
      advance: 12
      channel: 15
      kerning: 46000000ffffffff50000000ffffffff54000000ffffffff56000000ffffffff57000000ffffffff59000000ffffffffdd000000ffffffff
    - index: 193
      x: 227
      y: 23
      width: 18
      height: 20
      offsetX: -2
      offsetY: -1
      advance: 12
      channel: 15
      kerning: 46000000ffffffff50000000ffffffff54000000ffffffff56000000ffffffff57000000ffffffff59000000ffffffffdd000000ffffffff
    - index: 194
      x: 162
      y: 0
      width: 18
      height: 21
      offsetX: -2
      offsetY: -2
      advance: 12
      channel: 15
      kerning: 46000000ffffffff50000000ffffffff54000000ffffffff56000000ffffffff57000000ffffffff59000000ffffffffdd000000ffffffff
    - index: 195
      x: 142
      y: 0
      width: 18
      height: 21
      offsetX: -2
      offsetY: -2
      advance: 12
      channel: 15
      kerning: 46000000ffffffff50000000ffffffff54000000ffffffff56000000ffffffff57000000ffffffff59000000ffffffffdd000000ffffffff
    - index: 196
      x: 187
      y: 23
      width: 18
      height: 20
      offsetX: -2
      offsetY: -1
      advance: 12
      channel: 15
      kerning: 46000000ffffffff50000000ffffffff54000000ffffffff56000000ffffffff57000000ffffffff59000000ffffffffdd000000ffffffff
    - index: 197
      x: 207
      y: 23
      width: 18
      height: 20
      offsetX: -2
      offsetY: -1
      advance: 12
      channel: 15
      kerning: 46000000ffffffff50000000ffffffff54000000ffffffff56000000ffffffff57000000ffffffff59000000ffffffffdd000000ffffffff
    - index: 198
      x: 214
      y: 107
      width: 26
      height: 17
      offsetX: -3
      offsetY: 2
      advance: 19
      channel: 15
      kerning: 
    - index: 199
      x: 19
      y: 24
      width: 17
      height: 21
      offsetX: -1
      offsetY: 2
      advance: 13
      channel: 15
      kerning: 
    - index: 200
      x: 170
      y: 45
      width: 16
      height: 20
      offsetX: -1
      offsetY: -1
      advance: 12
      channel: 15
      kerning: 
    - index: 201
      x: 134
      y: 46
      width: 16
      height: 20
      offsetX: -1
      offsetY: -1
      advance: 12
      channel: 15
      kerning: 
    - index: 202
      x: 92
      y: 24
      width: 16
      height: 21
      offsetX: -1
      offsetY: -2
      advance: 12
      channel: 15
      kerning: 
    - index: 203
      x: 152
      y: 46
      width: 16
      height: 20
      offsetX: -1
      offsetY: -1
      advance: 12
      channel: 15
      kerning: 
    - index: 204
      x: 238
      y: 45
      width: 12
      height: 20
      offsetX: -3
      offsetY: -1
      advance: 5
      channel: 15
      kerning: 
    - index: 205
      x: 0
      y: 69
      width: 12
      height: 20
      offsetX: -2
      offsetY: -1
      advance: 5
      channel: 15
      kerning: 
    - index: 206
      x: 128
      y: 23
      width: 14
      height: 21
      offsetX: -3
      offsetY: -2
      advance: 5
      channel: 15
      kerning: 
    - index: 207
      x: 223
      y: 45
      width: 13
      height: 20
      offsetX: -2
      offsetY: -1
      advance: 5
      channel: 15
      kerning: 
    - index: 208
      x: 91
      y: 130
      width: 19
      height: 17
      offsetX: -2
      offsetY: 2
      advance: 14
      channel: 15
      kerning: 
    - index: 209
      x: 122
      y: 0
      width: 18
      height: 21
      offsetX: -1
      offsetY: -2
      advance: 14
      channel: 15
      kerning: 
    - index: 210
      x: 58
      y: 47
      width: 17
      height: 20
      offsetX: -1
      offsetY: -1
      advance: 13
      channel: 15
      kerning: 
    - index: 211
      x: 39
      y: 47
      width: 17
      height: 20
      offsetX: -1
      offsetY: -1
      advance: 13
      channel: 15
      kerning: 
    - index: 212
      x: 0
      y: 24
      width: 17
      height: 21
      offsetX: -1
      offsetY: -2
      advance: 13
      channel: 15
      kerning: 
    - index: 213
      x: 201
      y: 0
      width: 17
      height: 21
      offsetX: -1
      offsetY: -2
      advance: 13
      channel: 15
      kerning: 
    - index: 214
      x: 20
      y: 47
      width: 17
      height: 20
      offsetX: -1
      offsetY: -1
      advance: 13
      channel: 15
      kerning: 
    - index: 215
      x: 93
      y: 206
      width: 16
      height: 15
      offsetX: -1
      offsetY: 4
      advance: 12
      channel: 15
      kerning: 
    - index: 216
      x: 220
      y: 0
      width: 17
      height: 21
      offsetX: -1
      offsetY: 0
      advance: 13
      channel: 15
      kerning: 
    - index: 217
      x: 77
      y: 47
      width: 17
      height: 20
      offsetX: -1
      offsetY: -1
      advance: 13
      channel: 15
      kerning: 
    - index: 218
      x: 96
      y: 47
      width: 17
      height: 20
      offsetX: -1
      offsetY: -1
      advance: 13
      channel: 15
      kerning: 
    - index: 219
      x: 182
      y: 0
      width: 17
      height: 21
      offsetX: -1
      offsetY: -2
      advance: 13
      channel: 15
      kerning: 
    - index: 220
      x: 115
      y: 46
      width: 17
      height: 20
      offsetX: -1
      offsetY: -1
      advance: 13
      channel: 15
      kerning: 
    - index: 221
      x: 166
      y: 23
      width: 19
      height: 20
      offsetX: -3
      offsetY: -1
      advance: 12
      channel: 15
      kerning: 41000000ffffffff4c000000feffffffc0000000ffffffffc1000000ffffffffc2000000ffffffffc3000000ffffffffc4000000ffffffffc5000000ffffffff
    - index: 222
      x: 99
      y: 69
      width: 16
      height: 18
      offsetX: -1
      offsetY: 1
      advance: 12
      channel: 15
      kerning: 
    - index: 223
      x: 117
      y: 68
      width: 16
      height: 18
      offsetX: -1
      offsetY: 1
      advance: 12
      channel: 15
      kerning: 
    - index: 224
      x: 68
      y: 110
      width: 15
      height: 18
      offsetX: -1
      offsetY: 1
      advance: 11
      channel: 15
      kerning: 54000000ffffffff56000000ffffffff59000000ffffffffdd000000ffffffff
    - index: 225
      x: 51
      y: 110
      width: 15
      height: 18
      offsetX: -1
      offsetY: 1
      advance: 11
      channel: 15
      kerning: 54000000ffffffff56000000ffffffff59000000ffffffffdd000000ffffffff
    - index: 226
      x: 221
      y: 87
      width: 15
      height: 18
      offsetX: -1
      offsetY: 1
      advance: 11
      channel: 15
      kerning: 54000000ffffffff56000000ffffffff59000000ffffffffdd000000ffffffff
    - index: 227
      x: 17
      y: 90
      width: 15
      height: 18
      offsetX: -1
      offsetY: 1
      advance: 11
      channel: 15
      kerning: 54000000ffffffff56000000ffffffff59000000ffffffffdd000000ffffffff
    - index: 228
      x: 0
      y: 91
      width: 15
      height: 18
      offsetX: -1
      offsetY: 1
      advance: 11
      channel: 15
      kerning: 54000000ffffffff56000000ffffffff59000000ffffffffdd000000ffffffff
    - index: 229
      x: 206
      y: 45
      width: 15
      height: 20
      offsetX: -1
      offsetY: -1
      advance: 11
      channel: 15
      kerning: 54000000ffffffff56000000ffffffff59000000ffffffffdd000000ffffffff
    - index: 230
      x: 200
      y: 185
      width: 21
      height: 15
      offsetX: -1
      offsetY: 4
      advance: 17
      channel: 15
      kerning: 
    - index: 231
      x: 33
      y: 69
      width: 15
      height: 19
      offsetX: -1
      offsetY: 4
      advance: 11
      channel: 15
      kerning: 
    - index: 232
      x: 136
      y: 88
      width: 15
      height: 18
      offsetX: -1
      offsetY: 1
      advance: 11
      channel: 15
      kerning: 54000000ffffffff56000000ffffffff59000000ffffffffdd000000ffffffff
    - index: 233
      x: 85
      y: 90
      width: 15
      height: 18
      offsetX: -1
      offsetY: 1
      advance: 11
      channel: 15
      kerning: 54000000ffffffff56000000ffffffff59000000ffffffffdd000000ffffffff
    - index: 234
      x: 102
      y: 89
      width: 15
      height: 18
      offsetX: -1
      offsetY: 1
      advance: 11
      channel: 15
      kerning: 54000000ffffffff56000000ffffffff59000000ffffffffdd000000ffffffff
    - index: 235
      x: 240
      y: 67
      width: 14
      height: 18
      offsetX: -1
      offsetY: 1
      advance: 10
      channel: 15
      kerning: 54000000ffffffff56000000ffffffff59000000ffffffffdd000000ffffffff
    - index: 236
      x: 164
      y: 108
      width: 12
      height: 18
      offsetX: -3
      offsetY: 1
      advance: 5
      channel: 15
      kerning: 
    - index: 237
      x: 178
      y: 108
      width: 12
      height: 18
      offsetX: -2
      offsetY: 1
      advance: 5
      channel: 15
      kerning: 
    - index: 238
      x: 134
      y: 108
      width: 13
      height: 18
      offsetX: -3
      offsetY: 1
      advance: 5
      channel: 15
      kerning: 
    - index: 239
      x: 149
      y: 108
      width: 13
      height: 18
      offsetX: -2
      offsetY: 1
      advance: 5
      channel: 15
      kerning: 5400000001000000
    - index: 240
      x: 119
      y: 88
      width: 15
      height: 18
      offsetX: -1
      offsetY: 1
      advance: 11
      channel: 15
      kerning: 
    - index: 241
      x: 34
      y: 90
      width: 15
      height: 18
      offsetX: -1
      offsetY: 1
      advance: 11
      channel: 15
      kerning: 
    - index: 242
      x: 153
      y: 88
      width: 15
      height: 18
      offsetX: -1
      offsetY: 1
      advance: 11
      channel: 15
      kerning: 54000000ffffffff56000000ffffffff59000000ffffffffdd000000ffffffff
    - index: 243
      x: 170
      y: 88
      width: 15
      height: 18
      offsetX: -1
      offsetY: 1
      advance: 11
      channel: 15
      kerning: 54000000ffffffff56000000ffffffff59000000ffffffffdd000000ffffffff
    - index: 244
      x: 187
      y: 87
      width: 15
      height: 18
      offsetX: -1
      offsetY: 1
      advance: 11
      channel: 15
      kerning: 54000000ffffffff56000000ffffffff59000000ffffffffdd000000ffffffff
    - index: 245
      x: 204
      y: 87
      width: 15
      height: 18
      offsetX: -1
      offsetY: 1
      advance: 11
      channel: 15
      kerning: 54000000ffffffff56000000ffffffff59000000ffffffffdd000000ffffffff
    - index: 246
      x: 153
      y: 68
      width: 16
      height: 18
      offsetX: -1
      offsetY: 1
      advance: 11
      channel: 15
      kerning: 54000000ffffffff56000000ffffffff59000000ffffffffdd000000ffffffff
    - index: 247
      x: 57
      y: 207
      width: 16
      height: 15
      offsetX: -1
      offsetY: 4
      advance: 12
      channel: 15
      kerning: 
    - index: 248
      x: 238
      y: 87
      width: 15
      height: 18
      offsetX: -1
      offsetY: 3
      advance: 11
      channel: 15
      kerning: 
    - index: 249
      x: 0
      y: 111
      width: 15
      height: 18
      offsetX: -1
      offsetY: 1
      advance: 11
      channel: 15
      kerning: 54000000ffffffff56000000ffffffff59000000ffffffffdd000000ffffffff
    - index: 250
      x: 17
      y: 110
      width: 15
      height: 18
      offsetX: -1
      offsetY: 1
      advance: 11
      channel: 15
      kerning: 54000000ffffffff56000000ffffffff59000000ffffffffdd000000ffffffff
    - index: 251
      x: 34
      y: 110
      width: 15
      height: 18
      offsetX: -1
      offsetY: 1
      advance: 11
      channel: 15
      kerning: 54000000ffffffff56000000ffffffff59000000ffffffffdd000000ffffffff
    - index: 252
      x: 171
      y: 67
      width: 16
      height: 18
      offsetX: -1
      offsetY: 1
      advance: 12
      channel: 15
      kerning: 54000000ffffffff56000000ffffffff59000000ffffffffdd000000ffffffff
    - index: 253
      x: 74
      y: 24
      width: 16
      height: 21
      offsetX: -2
      offsetY: 1
      advance: 10
      channel: 15
      kerning: 
    - index: 254
      x: 239
      y: 0
      width: 15
      height: 21
      offsetX: -1
      offsetY: 1
      advance: 11
      channel: 15
      kerning: 
    - index: 255
      x: 38
      y: 24
      width: 16
      height: 21
      offsetX: -2
      offsetY: 1
      advance: 10
      channel: 15
      kerning: 
  mAtlas: {fileID: 11400000, guid: 2f2473f73b9ca724f9080d6d76009ea2, type: 2}
  mReplacement: {fileID: 0}
  mPixelSize: 1
  mSymbols: []
  mDynamicFont: {fileID: 0}
  mDynamicFontSize: 16
  mDynamicFontStyle: 0
--- !u!1001 &100100000
Prefab:
  m_ObjectHideFlags: 1
  serializedVersion: 2
  m_Modification:
    m_TransformParent: {fileID: 0}
    m_Modifications: []
    m_RemovedComponents: []
  m_ParentPrefab: {fileID: 0}
  m_RootGameObject: {fileID: 100000}
  m_IsPrefabParent: 1
  m_IsExploded: 1
