%YAML 1.1
%TAG !u! tag:unity3d.com,2011:
--- !u!21 &2100000
Material:
  serializedVersion: 3
  m_ObjectHideFlags: 0
  m_PrefabParentObject: {fileID: 0}
  m_PrefabInternal: {fileID: 0}
  m_Name: ShaderForgeInternal
  m_Shader: {fileID: 4800000, guid: 03e0da141b5e2fe4292cde2e6a8d4bd2, type: 3}
  m_ShaderKeywords: []
  m_CustomRenderQueue: -1
  m_SavedProperties:
    serializedVersion: 2
    m_TexEnvs:
      data:
        first:
          name: _MainTex
        second:
          m_Texture: {fileID: 0}
          m_Scale: {x: 1, y: 1}
          m_Offset: {x: 0, y: 0}
      data:
        first:
          name: _Texture
        second:
          m_Texture: {fileID: 2800000, guid: 878ddf46407906f45904b8ff6d2c6149, type: 3}
          m_Scale: {x: 1, y: 1}
          m_Offset: {x: 0, y: 0}
      data:
        first:
          name: _node_20
        second:
          m_Texture: {fileID: 0}
          m_Scale: {x: 1, y: 1}
          m_Offset: {x: 0, y: 0}
      data:
        first:
          name: _Normal
        second:
          m_Texture: {fileID: 0}
          m_Scale: {x: 1, y: 1}
          m_Offset: {x: 0, y: 0}
      data:
        first:
          name: _SpecularMap
        second:
          m_Texture: {fileID: 0}
          m_Scale: {x: 1, y: 1}
          m_Offset: {x: 0, y: 0}
    m_Floats:
      data:
        first:
          name: _Cutoff
        second: .5
      data:
        first:
          name: _RimPower
        second: .769230485
      data:
        first:
          name: _OutlineWidth
        second: .129999995
      data:
        first:
          name: _node_92
        second: 50
      data:
        first:
          name: _Alpha
        second: .850000024
      data:
        first:
          name: _Outline
        second: 0
      data:
        first:
          name: _node_162
        second: 45
      data:
        first:
          name: _node_183
        second: .00999999978
      data:
        first:
          name: _node_218
        second: 0
    m_Colors:
      data:
        first:
          name: _Color
        second: {r: 1, g: 1, b: 1, a: 1}
      data:
        first:
          name: _Tint
        second: {r: 1, g: 0, b: .0206894875, a: 1}
      data:
        first:
          name: _RimColor
        second: {r: 1, g: 0, b: 0, a: 1}
      data:
        first:
          name: _OutlineColor
        second: {r: 0, g: 1, b: .255172253, a: 1}
      data:
        first:
          name: _node_146
        second: {r: 0, g: 1, b: .255172253, a: 1}
      data:
        first:
          name: _SpecularColor
        second: {r: .5, g: .5, b: .5, a: 1}
