%YAML 1.1
%TAG !u! tag:unity3d.com,2011:
--- !u!1 &100000
GameObject:
  m_ObjectHideFlags: 0
  m_PrefabParentObject: {fileID: 0}
  m_PrefabInternal: {fileID: 100100000}
  serializedVersion: 4
  m_Component:
  - 4: {fileID: 400000}
  - 114: {fileID: 11400000}
  m_Layer: 0
  m_Name: GameSpawner
  m_TagString: Untagged
  m_Icon: {fileID: 0}
  m_NavMeshLayer: 0
  m_StaticEditorFlags: 0
  m_IsActive: 1
--- !u!4 &400000
Transform:
  m_ObjectHideFlags: 1
  m_PrefabParentObject: {fileID: 0}
  m_PrefabInternal: {fileID: 100100000}
  m_GameObject: {fileID: 100000}
  m_LocalRotation: {x: 0, y: 0, z: 0, w: 1}
  m_LocalPosition: {x: 0, y: 0, z: 0}
  m_LocalScale: {x: 1, y: 1, z: 1}
  m_Children: []
  m_Father: {fileID: 0}
  m_RootOrder: 0
--- !u!114 &11400000
MonoBehaviour:
  m_ObjectHideFlags: 1
  m_PrefabParentObject: {fileID: 0}
  m_PrefabInternal: {fileID: 100100000}
  m_GameObject: {fileID: 100000}
  m_Enabled: 1
  m_EditorHideFlags: 0
  m_Script: {fileID: 11500000, guid: c8511ebeed41300458cf0388748b162a, type: 3}
  m_Name: 
  m_EditorClassIdentifier: 
  snowman: {fileID: 100094, guid: 8cf4436d569b36249ae0670040f350af, type: 2}
  monkey: {fileID: 100008, guid: e90eb363ae4965c409c3bbbc39c1e60b, type: 2}
  army: {fileID: 100048, guid: 704ca97b17d9cf94d9b8ea82ea7fd7f9, type: 2}
  heli: {fileID: 100008, guid: 57f69128966f6a8419da51369ff393ab, type: 2}
  wizard: {fileID: 100014, guid: aaf011103b710a643b26444438345911, type: 2}
  robot: {fileID: 100216, guid: b6e0f8510c2673c44976c10fcb8c3011, type: 2}
  superhero: {fileID: 100020, guid: 6c8ba542f82a3bc4fb9ee05d7711390d, type: 2}
  lego: {fileID: 100012, guid: d482ba7b7a3d716478b4bb42500a1761, type: 2}
  jack: {fileID: 100032, guid: 040e29d4d2695f24c92329ec3bd429d3, type: 2}
  bear: {fileID: 100020, guid: 2e6f141d7c9b0fc46bdd4bc1c9a7f3f7, type: 2}
  raidSpawnPoints:
  - {fileID: 0}
  - {fileID: 0}
  - {fileID: 0}
  - {fileID: 0}
  - {fileID: 0}
  bossSpawnPoint: {fileID: 0}
--- !u!1001 &100100000
Prefab:
  m_ObjectHideFlags: 1
  serializedVersion: 2
  m_Modification:
    m_TransformParent: {fileID: 0}
    m_Modifications: []
    m_RemovedComponents: []
  m_ParentPrefab: {fileID: 0}
  m_RootGameObject: {fileID: 100000}
  m_IsPrefabParent: 1
  m_IsExploded: 1
