%YAML 1.1
%TAG !u! tag:unity3d.com,2011:
--- !u!21 &2100000
Material:
  serializedVersion: 3
  m_ObjectHideFlags: 0
  m_PrefabParentObject: {fileID: 0}
  m_PrefabInternal: {fileID: 0}
  m_Name: bear_body_diffuse
  m_Shader: {fileID: 7, guid: 0000000000000000f000000000000000, type: 0}
  m_ShaderKeywords: []
  m_CustomRenderQueue: -1
  m_SavedProperties:
    serializedVersion: 2
    m_TexEnvs:
      data:
        first:
          name: _MainTex
        second:
          m_Texture: {fileID: 2800000, guid: f897167c5894c40e5ae471e728b1c483, type: 3}
          m_Scale: {x: 1, y: 1}
          m_Offset: {x: 0, y: 0}
      data:
        first:
          name: _NoiseTex
        second:
          m_Texture: {fileID: 2800000, guid: 57fdcabc420dc06479a814e1235bc142, type: 3}
          m_Scale: {x: 1, y: 1}
          m_Offset: {x: 0, y: 0}
    m_Floats:
      data:
        first:
          name: _Cutoff
        second: 0
      data:
        first:
          name: _FurLength
        second: 1
      data:
        first:
          name: _EdgeFade
        second: .400000006
      data:
        first:
          name: _FurDarkening
        second: 9.34000015
    m_Colors:
      data:
        first:
          name: _Color
        second: {r: 1, g: 1, b: 1, a: 1}
      data:
        first:
          name: _LightDirection0
        second: {r: 1, g: 3.20000005, b: 3.00999999, a: 1}
      data:
        first:
          name: _MyLightColor0
        second: {r: 0, g: 0, b: 0, a: 1}
      data:
        first:
          name: _LightDirection1
        second: {r: 1, g: 0, b: 0, a: 1}
      data:
        first:
          name: _MyLightColor1
        second: {r: .397058845, g: .397058845, b: .397058845, a: 1}
